# File produced by Open Asset Import Library (http://www.assimp.sf.net)
# (assimp v4.1.0)

mtllib materials.mtl

# 130 vertex positions
v  -27.00650024414062 0 27.2903995513916
v  -27.49020004272461 0 26.62470054626465
v  -27.49020004272461 25 26.62470054626465
v  -27.00650024414062 25 27.2903995513916
v  -28.27280044555664 0 26.87899971008301
v  -28.27280044555664 25 26.87899971008301
v  -28.27280044555664 0 27.70190048217773
v  -28.27280044555664 25 27.70190048217773
v  -27.49020004272461 0 27.95619964599609
v  -27.49020004272461 25 27.95619964599609
v  -2.407999038696289 0 25.39060020446777
v  -2.891700744628906 0 24.72480010986328
v  -2.891700744628906 25 24.72480010986328
v  -2.407999038696289 25 25.39060020446777
v  -3.674299240112305 0 24.97909927368164
v  -3.674299240112305 25 24.97909927368164
v  -3.674299240112305 0 25.80200004577637
v  -3.674299240112305 25 25.80200004577637
v  -2.891700744628906 0 26.05629920959473
v  -2.891700744628906 25 26.05629920959473
v  19.21610069274902 0 16.60639953613281
v  18.73240089416504 0 15.94069957733154
v  18.73240089416504 25 15.94069957733154
v  19.21610069274902 25 16.60639953613281
v  17.94980049133301 0 16.19499969482422
v  17.94980049133301 25 16.19499969482422
v  17.94980049133301 0 17.01790046691895
v  17.94980049133301 25 17.01790046691895
v  18.73240089416504 0 17.2721996307373
v  18.73240089416504 25 17.2721996307373
v  28.10909843444824 0 -28.57929801940918
v  27.62540245056152 0 -29.2450008392334
v  27.62540245056152 25 -29.2450008392334
v  28.10909843444824 25 -28.57929801940918
v  26.84280204772949 0 -28.99069786071777
v  26.84280204772949 25 -28.99069786071777
v  26.84280204772949 0 -28.16779899597168
v  26.84280204772949 25 -28.16779899597168
v  27.62540245056152 0 -27.91349983215332
v  27.62540245056152 25 -27.91349983215332
v  26.80999946594238 0 -5.455499649047852
v  26.3262996673584 0 -6.121198654174805
v  26.3262996673584 25 -6.121198654174805
v  26.80999946594238 25 -5.455499649047852
v  25.54369926452637 0 -5.866899490356445
v  25.54369926452637 25 -5.866899490356445
v  25.54369926452637 0 -5.044000625610352
v  25.54369926452637 25 -5.044000625610352
v  26.3262996673584 0 -4.789800643920898
v  26.3262996673584 25 -4.789800643920898
v  -27.82320022583008 0.7098000049591064 5.321500778198242
v  -14.5443000793457 0.7098000049591064 3.690099716186523
v  -14.5443000793457 8.926400184631348 3.690099716186523
v  -27.82320022583008 8.926400184631348 5.321500778198242
v  1.022300720214844 0.7098000049591064 -1.519399642944336
v  1.022300720214844 8.926400184631348 -1.519399642944336
v  10.03079795837402 0.7098000049591064 -13.6830005645752
v  10.03079795837402 8.926400184631348 -13.6830005645752
v  13.31979942321777 0.7098000049591064 -27.7278995513916
v  13.31979942321777 8.926400184631348 -27.7278995513916
v  -28.1466007232666 8.92650032043457 5.848899841308594
v  -14.59669971466064 8.92650032043457 4.940799713134766
v  -16.6294002532959 8.92650032043457 -0.9626007080078125
v  -28.1466007232666 8.92650032043457 -0.3946990966796875
v  2.279300689697266 8.92650032043457 -1.010900497436523
v  -1.857799530029297 8.92650032043457 -5.68699836730957
v  12.90089988708496 8.92650032043457 -13.14130210876465
v  7.05259895324707 8.92650032043457 -15.32779884338379
v  16.03750038146973 8.92650032043457 -28.31120109558105
v  9.794900894165039 8.92650032043457 -28.20219993591309
v  34.90720367431641 23.5044002532959 -6.084299087524414
v  34.90800476074219 23.5044002532959 -35.60400390625
v  18.49600028991699 35.32929992675781 -23.85320091247559
v  18.4955997467041 35.32929992675781 -7.735799789428711
v  -36.54439926147461 23.5044002532959 -35.68460083007812
v  -26.13330078125 35.19950103759766 -23.90240287780762
v  -36.43629837036133 23.5044002532959 36.18659973144531
v  -26.0673999786377 35.19950103759766 18.03000068664551
v  -17.29459953308105 23.5044002532959 37.28039932250977
v  -13.32359981536865 36.14770126342773 18.69669914245605
v  21.58299827575684 23.5044002532959 26.78770065307617
v  10.37389945983887 35.32929992675781 12.30099964141846
v  -7.124500274658203 48.65370178222656 -10.31400108337402
v  -30 1.5 30
v  -10 1.5 30
v  -29.90270042419434 1.5 10
v  6.580499649047852 1.5 26.29159927368164
v  6.580499649047852 1.5 6.291601181030273
v  20.26949882507324 1.5 19.94309997558594
v  26.58049964904785 1.5 6.291601181030273
v  9.999998092651367 1.5 -30.03560066223145
v  -29.90270042419434 1.5 -30.03560066223145
v  29.99999809265137 1.5 -9.999998092651367
v  29.99999809265137 1.5 -29.99999809265137
v  -30 0 30
v  -10 0 30
v  6.580499649047852 0 26.29159927368164
v  20.26949882507324 0 19.94309997558594
v  26.58049964904785 0 6.291601181030273
v  29.99999809265137 0 -9.999998092651367
v  29.99999809265137 0 -29.99999809265137
v  9.999998092651367 0 -30.03560066223145
v  -29.90270042419434 0 -30.03560066223145
v  -29.90270042419434 0 10
v  -27.55559921264648 0.3689999878406525 28.8799991607666
v  -27.55559921264648 0.3689999878406525 -29.79160118103027
v  -27.55559921264648 16.85379981994629 -29.79160118103027
v  -27.55559921264648 16.85379981994629 28.8799991607666
v  -27.70409965515137 0.3689999878406525 -29.79160118103027
v  -27.70409965515137 0.3689999878406525 28.8799991607666
v  -27.70409965515137 16.85379981994629 28.8799991607666
v  -27.70409965515137 16.85379981994629 -29.79160118103027
v  -29.30139923095703 0.3689999878406525 -28.13200187683105
v  29.3701000213623 0.3689999878406525 -28.13200187683105
v  29.37019920349121 16.85379981994629 -28.13200187683105
v  -29.30139923095703 16.85379981994629 -28.13200187683105
v  29.3701000213623 0.3689999878406525 -28.2805004119873
v  -29.30139923095703 0.3689999878406525 -28.2805004119873
v  -29.30139923095703 16.85379981994629 -28.2805004119873
v  29.37019920349121 16.85379981994629 -28.2805004119873
v  -26.77000045776367 0 -27.83559989929199
v  -27.25370025634766 0 -28.50130271911621
v  -27.25370025634766 25 -28.50130271911621
v  -26.77000045776367 25 -27.83559989929199
v  -28.03630065917969 0 -28.24699974060059
v  -28.03630065917969 25 -28.24699974060059
v  -28.03630065917969 0 -27.42410087585449
v  -28.03630065917969 25 -27.42410087585449
v  -27.25370025634766 0 -27.16979789733887
v  -27.25370025634766 25 -27.16979789733887

# 135 UV coordinates
vt 0.1137999966740608 0.5457000136375427 0.0115999998524785
vt 0.122299998998642 0.5457000136375427 0.02329999953508377
vt 0.122299998998642 0.982699990272522 0.02329999953508377
vt 0.1137999966740608 0.982699990272522 0.0115999998524785
vt 0.136000007390976 0.5457000136375427 0.01879999972879887
vt 0.136000007390976 0.982699990272522 0.01879999972879887
vt 0.136000007390976 0.5457000136375427 0.004399999976158142
vt 0.136000007390976 0.982699990272522 0.004399999976158142
vt 0.122299998998642 0.5457000136375427 0
vt 0.122299998998642 0.982699990272522 0
vt 0.0869000032544136 0.5457000136375427 0.04490000009536743
vt 0.09529999643564224 0.5457000136375427 0.05649999901652336
vt 0.09529999643564224 0.982699990272522 0.05649999901652336
vt 0.0869000032544136 0.982699990272522 0.04490000009536743
vt 0.1089999973773956 0.5457000136375427 0.05200000107288361
vt 0.1089999973773956 0.982699990272522 0.05200000107288361
vt 0.1089999973773956 0.5457000136375427 0.03770000115036964
vt 0.1089999973773956 0.982699990272522 0.03770000115036964
vt 0.09529999643564224 0.5457000136375427 0.03319999948143959
vt 0.09529999643564224 0.982699990272522 0.03319999948143959
vt 0.0568000003695488 0.5457000136375427 0.198400005698204
vt 0.06520000100135803 0.5457000136375427 0.210099995136261
vt 0.06520000100135803 0.982699990272522 0.210099995136261
vt 0.0568000003695488 0.982699990272522 0.198400005698204
vt 0.07890000194311142 0.5457000136375427 0.2055999934673309
vt 0.07890000194311142 0.982699990272522 0.2055999934673309
vt 0.07890000194311142 0.5457000136375427 0.191200003027916
vt 0.07890000194311142 0.982699990272522 0.191200003027916
vt 0.06520000100135803 0.5457000136375427 0.1868000030517578
vt 0.06520000100135803 0.982699990272522 0.1868000030517578
vt 0.01410000026226044 0.5457000136375427 0.9883999824523926
vt 0.02250000089406967 0.5457000136375427 1
vt 0.02250000089406967 0.982699990272522 1
vt 0.01410000026226044 0.982699990272522 0.9883999824523926
vt 0.03620000183582306 0.5457000136375427 0.9955999851226807
vt 0.03620000183582306 0.982699990272522 0.9955999851226807
vt 0.03620000183582306 0.5457000136375427 0.9811999797821045
vt 0.03620000183582306 0.982699990272522 0.9811999797821045
vt 0.02250000089406967 0.5457000136375427 0.9767000079154968
vt 0.02250000089406967 0.982699990272522 0.9767000079154968
vt 0.03680000081658363 0.5457000136375427 0.5841000080108643
vt 0.04520000144839287 0.5457000136375427 0.5957000255584717
vt 0.04520000144839287 0.982699990272522 0.5957000255584717
vt 0.03680000081658363 0.982699990272522 0.5841000080108643
vt 0.05889999866485596 0.5457000136375427 0.5913000106811523
vt 0.05889999866485596 0.982699990272522 0.5913000106811523
vt 0.05889999866485596 0.5457000136375427 0.5769000053405762
vt 0.05889999866485596 0.982699990272522 0.5769000053405762
vt 0.04520000144839287 0.5457000136375427 0.5724999904632568
vt 0.04520000144839287 0.982699990272522 0.5724999904632568
vt 0.5618000030517578 0.767300009727478 0.5004000067710876
vt 0.6477000117301941 0.767300009727478 0.6337000131607056
vt 0.6477000117301941 0.8292999863624573 0.6337000131607056
vt 0.5618000030517578 0.8292999863624573 0.5004000067710876
vt 0.7639999985694885 0.767300009727478 0.7411999702453613
vt 0.7639999985694885 0.8292999863624573 0.7411999702453613
vt 0.8744999766349792 0.767300009727478 0.6682000160217285
vt 0.8744999766349792 0.8292999863624573 0.6682000160217285
vt 0.9602000117301941 0.767300009727478 0.4995999932289124
vt 0.9602000117301941 0.8292999863624573 0.4995999932289124
vt 0.372299998998642 0.02099999971687794 0.5
vt 0.5593000054359436 0.03350000083446503 0.5
vt 0.5311999917030334 0.1150000020861626 0.5
vt 0.372299998998642 0.1071000024676323 0.5
vt 0.7922000288963318 0.1155999973416328 0.5
vt 0.7350999712944031 0.18019999563694 0.5
vt 0.9387000203132629 0.2829999923706055 0.5
vt 0.8579999804496765 0.3131999969482422 0.5
vt 0.9819999933242798 0.4923999905586243 0.5
vt 0.8959000110626221 0.4909000098705292 0.5
vt 0.7795000076293945 0.4722999930381775 0.3276999890804291
vt 0.7795000076293945 0.7121999859809875 0.3276999890804291
vt 0.6462000012397766 0.6166999936103821 0.4896999895572662
vt 0.6462000012397766 0.4857999980449677 0.4896999895572662
vt 0.1990000009536743 0.7128000259399414 0.3276999890804291
vt 0.2836000025272369 0.6171000003814697 0.4878999888896942
vt 0 0 0
vt 0.1999000012874603 0.1289000064134598 0.3276999890804291
vt 0.2840999960899353 0.2763999998569489 0.4878999888896942
vt 0.3553999960422516 0.119999997317791 0.3276999890804291
vt 0.3876000046730042 0.2709999978542328 0.5008999705314636
vt 0.6711999773979187 0.2053000032901764 0.3276999890804291
vt 0.5802000164985657 0.3230000138282776 0.4896999895572662
vt 0.2135999947786331 0.7569000124931335 0.5
vt 0.2818000018596649 0.7569000124931335 0.5
vt 0.2140000015497208 0.8251000046730042 0.5
vt 0.3384000062942505 0.769599974155426 0.5
vt 0.3384000062942505 0.8377000093460083 0.5
vt 0.3849999904632568 0.7911999821662903 0.5
vt 0.4065000116825104 0.8377000093460083 0.5
vt 0.3499999940395355 0.9616000056266785 0.5
vt 0.2140000015497208 0.9616000056266785 0.5
vt 0.4181999862194061 0.8932999968528748 0.5
vt 0.4181999862194061 0.9614999890327454 0.5
vt 0.567300021648407 0.7293999791145325 0.4988000094890594
vt 0.6334999799728394 0.7293999791145325 0.6657999753952026
vt 0.6334999799728394 0.7365000247955322 0.6657999753952026
vt 0.567300021648407 0.7365000247955322 0.4988000094890594
vt 0.7008000016212463 0.7293999791145325 0.7735000252723694
vt 0.7008000016212463 0.7365000247955322 0.7735000252723694
vt 0.7671999931335449 0.7293999791145325 0.835099995136261
vt 0.7671999931335449 0.7365000247955322 0.835099995136261
vt 0.8335999846458435 0.7293999791145325 0.7742999792098999
vt 0.8335999846458435 0.7365000247955322 0.7742999792098999
vt 0.8991000056266785 0.7293999791145325 0.6675000190734863
vt 0.8991000056266785 0.7365000247955322 0.6675000190734863
vt 0.9656999707221985 0.7293999791145325 0.5012000203132629
vt 0.9656999707221985 0.7365000247955322 0.5012000203132629
vt 0.5687000155448914 0.8514999747276306 0.5012999773025513
vt 0.9671000242233276 0.8514999747276306 0.5012999773025513
vt 0.9671000242233276 0.9634000062942505 0.5012999773025513
vt 0.5687000155448914 0.9634000062942505 0.5012999773025513
vt 0.9671000242233276 0.8514999747276306 0.4986999928951263
vt 0.5687000155448914 0.8514999747276306 0.4986999928951263
vt 0.5687000155448914 0.9634000062942505 0.4986999928951263
vt 0.9671000242233276 0.9634000062942505 0.4986999928951263
vt 0.9671000242233276 0.8517000079154968 0.4986999928951263
vt 0.5687000155448914 0.8517000079154968 0.4986999928951263
vt 0.5687000155448914 0.963699996471405 0.4986999928951263
vt 0.9671000242233276 0.963699996471405 0.4986999928951263
vt 0.5687000155448914 0.8517000079154968 0.5012999773025513
vt 0.9671000242233276 0.8517000079154968 0.5012999773025513
vt 0.9671000242233276 0.963699996471405 0.5012999773025513
vt 0.5687000155448914 0.963699996471405 0.5012999773025513
vt 0.4379999935626984 0.5066999793052673 0.6722999811172485
vt 0.1409000009298325 0.5457000136375427 0.9753999710083008
vt 0.1492999941110611 0.5457000136375427 0.9869999885559082
vt 0.1492999941110611 0.982699990272522 0.9869999885559082
vt 0.1409000009298325 0.982699990272522 0.9753999710083008
vt 0.1630000025033951 0.5457000136375427 0.9825999736785889
vt 0.1630000025033951 0.982699990272522 0.9825999736785889
vt 0.1630000025033951 0.5457000136375427 0.9682000279426575
vt 0.1630000025033951 0.982699990272522 0.9682000279426575
vt 0.1492999941110611 0.5457000136375427 0.963699996471405
vt 0.1492999941110611 0.982699990272522 0.963699996471405

# 87 vertex normals
vn 0.9719023704528809 0 -0.2353842705488205
vn 0.07645118981599808 0 -0.9970732927322388
vn 0.5241594910621643 0 -0.8516201376914978
vn 0.9719051718711853 0 0.2353730052709579
vn -0.92464280128479 0 -0.3808355033397675
vn -0.6479530334472656 0 -0.7616803646087646
vn -0.6479530334472656 0 0.7616803646087646
vn -0.92464280128479 0 0.3808355033397675
vn 0.5242308378219604 0 0.8515762686729431
vn 0.07650009542703629 0 0.9970695376396179
vn 0.9719051718711853 0 -0.2353731244802475
vn 0.07650012522935867 0 -0.9970695376396179
vn 0.5242308378219604 0 -0.8515762686729431
vn 0.9719023704528809 0 0.2353843748569489
vn -0.9246429204940796 0 -0.3808353543281555
vn -0.6479532122612 0 -0.7616800665855408
vn -0.6479532122612 0 0.7616800665855408
vn -0.9246429204940796 0 0.3808353543281555
vn 0.5241594910621643 0 0.8516201376914978
vn 0.07645121961832047 0 0.9970732927322388
vn 0.9719024300575256 0 -0.2353840619325638
vn 0.07645070552825928 0 -0.9970732927322388
vn 0.5241597890853882 0 -0.8516199588775635
vn 0.9719051122665405 0 0.2353728860616684
vn -0.9246428608894348 0 -0.3808353543281555
vn -0.6479535698890686 0 -0.7616798281669617
vn 0.9719024300575256 0 -0.2353838235139847
vn 0.07645026594400406 0 -0.9970734119415283
vn 0.5241601467132568 0 -0.8516197204589844
vn 0.9719051718711853 0 0.2353727966547012
vn -0.9246426224708557 0 -0.3808358311653137
vn -0.6479535698890686 0 0.7616798281669617
vn -0.9246426224708557 0 0.3808358311653137
vn 0.5242301225662231 0 0.8515766263008118
vn 0.07649824768304825 0 0.9970696568489075
vn 0.9718997478485107 0 -0.2353952080011368
vn 0.9718997478485107 0 0.2353952080011368
vn -0.9246427416801453 0 -0.3808357119560242
vn -0.6479532718658447 0 -0.7616801261901855
vn -0.6478967666625977 0 0.7617281675338745
vn -0.924635648727417 0 0.3808528482913971
vn 0.52419513463974 0 0.8515982031822205
vn 0.07654760032892227 0 0.9970659017562866
vn 0.1219397410750389 0 0.9925374984741211
vn 0.2618633508682251 0 0.9651049971580505
vn 0.1971772015094757 0 0.98036789894104
vn 0.6604152917861938 0 0.7509005665779114
vn 0.4903089702129364 0 0.8715487122535706
vn 0.9325326681137085 0 0.3610855638980865
vn 0.8742716908454895 0 0.4854369163513184
vn 0.9736589789390564 0 0.2280090898275375
vn 0 1 0
vn 0.5717654228210449 0.8109253644943237 0.1244365200400352
vn 0.2173619419336319 0.8230786919593811 -0.5246858596801758
vn 0.1996070593595505 0.8303462862968445 -0.5202711224555969
vn 0.5017979145050049 0.8576076030731201 0.1127297133207321
vn -0.4181911945343018 0.8009863495826721 -0.4284122586250305
vn -0.3748224079608917 0.8381678462028503 -0.3962105512619019
vn -0.6030557155609131 0.781671941280365 0.1590996086597443
vn -0.5488689541816711 0.822374701499939 0.1498091071844101
vn 0.06047440692782402 0.8245379328727722 0.5625656247138977
vn 0.09557048231363297 0.8598276376724243 0.5015602707862854
vn 0.3058059811592102 0.8324028253555298 0.4621560871601105
vn 0.376162052154541 0.8679607510566711 0.3242625296115875
vn 0 -1 0
vn 0 0 0
vn 0 0 1
vn 0.1381775289773941 0 0.9904074668884277
vn 0.06540170311927795 0 0.997859001159668
vn 0.349646121263504 0 0.9368817806243896
vn 0.2819003462791443 0 0.9594437479972839
vn 0.4207237362861633 0 0.9071887731552124
vn 0.9076984524726868 0 0.419623076915741
vn 0.961852490901947 0 0.2735685408115387
vn 0.9384804368019104 0 0.3453325033187866
vn 0.9981600642204285 0 0.06063442304730415
vn 0.9916479587554932 0 0.1289742887020111
vn 1 0 0
vn 0.001780030317604542 0 -0.9999983906745911
vn 0.000356700737029314 0 -0.9999998807907104
vn 0.0008911000331863761 0 -0.9999996423721313
vn 0 0 -1
vn -1 0 0
vn -0.999997079372406 0 -0.002431400353088975
vn -0.999999463558197 0 -0.0009723029797896743
vn -0.9999881982803345 0 -0.004864921327680349
vn -0.004644121509045362 0.9999384880065918 -0.01007040590047836

# Mesh 'Cylinder01' with 150 faces
g Cylinder01
usemtl Bar
f  1/1/1 2/2/2 3/3/3
f  3/3/3 4/4/4 1/1/1
f  2/2/2 5/5/5 6/6/6
f  6/6/6 3/3/3 2/2/2
f  5/5/5 7/7/7 8/8/8
f  8/8/8 6/6/6 5/5/5
f  7/7/7 9/9/9 10/10/10
f  10/10/10 8/8/8 7/7/7
f  9/9/9 1/1/1 4/4/4
f  4/4/4 10/10/10 9/9/9
f  11/11/11 12/12/12 13/13/13
f  13/13/13 14/14/14 11/11/11
f  12/12/12 15/15/15 16/16/16
f  16/16/16 13/13/13 12/12/12
f  15/15/15 17/17/17 18/18/18
f  18/18/18 16/16/16 15/15/15
f  17/17/17 19/19/19 20/20/20
f  20/20/20 18/18/18 17/17/17
f  19/19/19 11/11/11 14/14/14
f  14/14/14 20/20/20 19/19/19
f  21/21/21 22/22/22 23/23/23
f  23/23/23 24/24/24 21/21/21
f  22/22/22 25/25/25 26/26/26
f  26/26/26 23/23/23 22/22/22
f  25/25/25 27/27/7 28/28/8
f  28/28/8 26/26/26 25/25/25
f  27/27/7 29/29/9 30/30/10
f  30/30/10 28/28/8 27/27/7
f  29/29/9 21/21/21 24/24/24
f  24/24/24 30/30/10 29/29/9
f  31/31/27 32/32/28 33/33/29
f  33/33/29 34/34/30 31/31/27
f  32/32/28 35/35/31 36/36/26
f  36/36/26 33/33/29 32/32/28
f  35/35/31 37/37/32 38/38/33
f  38/38/33 36/36/26 35/35/31
f  37/37/32 39/39/34 40/40/35
f  40/40/35 38/38/33 37/37/32
f  39/39/34 31/31/27 34/34/30
f  34/34/30 40/40/35 39/39/34
f  41/41/36 42/42/22 43/43/23
f  43/43/23 44/44/37 41/41/36
f  42/42/22 45/45/38 46/46/39
f  46/46/39 43/43/23 42/42/22
f  45/45/38 47/47/40 48/48/41
f  48/48/41 46/46/39 45/45/38
f  47/47/40 49/49/42 50/50/43
f  50/50/43 48/48/41 47/47/40
f  49/49/42 41/41/36 44/44/37
f  44/44/37 50/50/43 49/49/42
f  51/51/44 52/52/45 53/53/46
f  53/53/46 54/54/44 51/51/44
f  52/52/45 55/55/47 56/56/48
f  56/56/48 53/53/46 52/52/45
f  55/55/47 57/57/49 58/58/50
f  58/58/50 56/56/48 55/55/47
f  57/57/49 59/59/51 60/60/51
f  60/60/51 58/58/50 57/57/49
f  61/61/52 62/62/52 63/63/52
f  63/63/52 64/64/52 61/61/52
f  62/62/52 65/65/52 66/66/52
f  66/66/52 63/63/52 62/62/52
f  65/65/52 67/67/52 68/68/52
f  68/68/52 66/66/52 65/65/52
f  69/69/52 70/70/52 68/68/52
f  68/68/52 67/67/52 69/69/52
f  71/71/53 72/72/54 73/73/55
f  73/73/55 74/74/56 71/71/53
f  75/75/57 76/76/58 73/73/55
f  73/73/55 72/72/54 75/75/57
f  75/77/57 76/77/58 76/77/58
f  75/75/57 77/78/59 78/79/60
f  78/79/60 76/76/58 75/75/57
f  79/80/61 80/81/62 78/79/60
f  78/79/60 77/78/59 79/80/61
f  81/82/63 82/83/64 80/81/62
f  80/81/62 79/80/61 81/82/63
f  71/71/53 74/74/56 82/83/64
f  82/83/64 81/82/63 71/71/53
f  79/77/65 77/77/65 75/77/65
f  75/77/65 72/77/65 71/77/65
f  79/77/65 75/77/65 71/77/65
f  81/77/65 79/77/65 71/77/65
f  83/77/66 83/77/66 83/77/66
f  83/77/66 83/77/66 83/77/66
f  83/77/66 83/77/66 83/77/66
f  83/77/66 83/77/66 83/77/66
f  83/77/66 83/77/66 83/77/66
f  84/84/52 85/85/52 86/86/52
f  85/85/52 87/87/52 88/88/52
f  88/88/52 86/86/52 85/85/52
f  87/87/52 89/89/52 90/90/52
f  90/90/52 88/88/52 87/87/52
f  86/86/52 88/88/52 91/91/52
f  91/91/52 92/92/52 86/86/52
f  88/88/52 90/90/52 93/93/52
f  93/93/52 91/91/52 88/88/52
f  91/91/52 93/93/52 94/94/52
f  95/95/67 96/96/68 85/97/69
f  85/97/69 84/98/67 95/95/67
f  96/96/68 97/99/70 87/100/71
f  87/100/71 85/97/69 96/96/68
f  97/99/70 98/101/72 89/102/72
f  89/102/72 87/100/71 97/99/70
f  98/101/73 99/103/74 90/104/75
f  90/104/75 89/102/73 98/101/73
f  99/103/74 100/105/76 93/106/77
f  93/106/77 90/104/75 99/103/74
f  100/105/76 101/107/78 94/108/78
f  94/108/78 93/106/77 100/105/76
f  101/77/79 102/77/80 91/77/81
f  91/77/81 94/77/79 101/77/79
f  102/77/80 103/77/82 92/77/82
f  92/77/82 91/77/81 102/77/80
f  103/77/83 104/77/84 86/77/85
f  86/77/85 92/77/83 103/77/83
f  104/77/84 95/77/86 84/77/86
f  84/77/86 86/77/85 104/77/84
f  105/109/78 106/110/78 107/111/78
f  107/111/78 108/112/78 105/109/78
f  109/113/83 110/114/83 111/115/83
f  111/115/83 112/116/83 109/113/83
f  113/117/67 114/118/67 115/119/67
f  115/119/67 116/120/67 113/117/67
f  117/121/82 118/122/82 119/123/82
f  119/123/82 120/124/82 117/121/82
f  83/125/87 74/74/56 73/73/55
f  73/73/55 83/125/87 83/125/87
f  83/125/87 73/73/55 76/76/58
f  76/76/58 83/125/87 83/125/87
f  76/77/58 76/77/58 83/77/87
f  83/77/87 83/77/87 76/77/58
f  83/125/87 76/76/58 78/79/60
f  78/79/60 83/125/87 83/125/87
f  83/125/87 78/79/60 80/81/62
f  80/81/62 83/125/87 83/125/87
f  83/125/87 80/81/62 82/83/64
f  82/83/64 83/125/87 83/125/87
f  83/125/87 82/83/64 74/74/56
f  74/74/56 83/125/87 83/125/87
f  121/126/27 122/127/28 123/128/29
f  123/128/29 124/129/30 121/126/27
f  122/127/28 125/130/31 126/131/26
f  126/131/26 123/128/29 122/127/28
f  125/130/31 127/132/32 128/133/33
f  128/133/33 126/131/26 125/130/31
f  127/132/32 129/134/34 130/135/35
f  130/135/35 128/133/33 127/132/32
f  129/134/34 121/126/27 124/129/30
f  124/129/30 130/135/35 129/134/34

