# File produced by Open Asset Import Library (http://www.assimp.sf.net)
# (assimp v4.1.0)

mtllib materials.mtl

# 6 vertex positions
v  -0.0406000018119812 2.031800270080566 0
v  1.396000146865845 0 1.436700105667114
v  1.396000146865845 0 -1.436600089073181
v  -0.0406000018119812 -2.031800270080566 0
v  -1.477299928665161 0 -1.436600089073181
v  -1.477299928665161 0 1.436700105667114

# 6 UV coordinates
vt 0.5 1.120700001716614 0.5
vt 0.06109999865293503 0.5 0.9388999938964844
vt 0.9388999938964844 0.5 0.9388999938964844
vt 0.5 -0.1207000017166138 0.5
vt 0.06109999865293503 0.5 0.06109999865293503
vt 0.9388999938964844 0.5 0.06109999865293503

# 6 vertex normals
vn -4.769638906054752e-09 0.1651609539985657 0
vn 0.116786427795887 0 0.1167864352464676
vn 0.116786427795887 0 -0.1167864352464676
vn 0 -0.1651609539985657 0
vn -0.1167864352464676 0 -0.1167864352464676
vn -0.1167864352464676 0 0.1167864352464676

# Mesh 'Hedra01' with 8 faces
g Hedra01
usemtl Bojka
f  1/1/1 2/2/2 3/3/3
f  3/2/3 4/4/4 5/3/5
f  5/5/5 6/6/6 1/1/1
f  6/5/6 4/4/4 2/6/2
f  3/2/3 5/3/5 1/1/1
f  6/5/6 2/6/2 1/1/1
f  2/2/2 4/4/4 3/3/3
f  6/6/6 5/5/5 4/4/4

