# File produced by Open Asset Import Library (http://www.assimp.sf.net)
# (assimp v4.1.0)

newmtl PalmLeaf
Kd 0.5882353186607361 0.5882353186607361 0.5882353186607361
Ka 0.5882353186607361 0.5882353186607361 0.5882353186607361
Ks 0.8999999761581421 0.8999999761581421 0.8999999761581421
Ke 0 0 0
d 1
illum 1
map_Kd palma_list.bmp

newmtl PalmTrunk
Kd 0.5882353186607361 0.5882353186607361 0.5882353186607361
Ka 0.5882353186607361 0.5882353186607361 0.5882353186607361
Ks 0.8999999761581421 0.8999999761581421 0.8999999761581421
Ke 0 0 0
d 1
Ns 1.49999988079071
illum 2
map_Kd palma.bmp

newmtl Bar
Kd 0.5881999731063843 0.5881999731063843 0.5881999731063843
Ka 0.5881999731063843 0.5881999731063843 0.5881999731063843
Ks 0.8999999761581421 0.8999999761581421 0.8999999761581421
Ke 0 0 0
d 1
illum 1
map_Kd bar.bmp

newmtl Stone3
Kd 0.5881999731063843 0.5881999731063843 0.5881999731063843
Ka 0.5881999731063843 0.5881999731063843 0.5881999731063843
Ks 0.8999999761581421 0.8999999761581421 0.8999999761581421
Ke 0 0 0
d 1
illum 1
map_Kd kamen3.bmp


newmtl HO_229
Kd 0.5879999995231628 0.5879999995231628 0.5879999995231628
Ka 0.5879999995231628 0.5879999995231628 0.5879999995231628
Ks 0.8999999761581421 0.8999999761581421 0.8999999761581421
Ke 0 0 0
d 1
illum 1
map_Kd HO229.bmp

newmtl Powerboat
Kd 0.5882353186607361 0.5882353186607361 0.5882353186607361
Ka 0.5882353186607361 0.5882353186607361 0.5882353186607361
Ks 0.8999999761581421 0.8999999761581421 0.8999999761581421
Ke 0 0 0
d 1
illum 1
map_Kd powerboat.bmp

newmtl Dock
Kd 0.5882353186607361 0.5882353186607361 0.5882353186607361
Ka 0.5882353186607361 0.5882353186607361 0.5882353186607361
Ks 0.8999999761581421 0.8999999761581421 0.8999999761581421
Ke 0 0 0
d 1
illum 1
map_Kd textura_molo2.bmp

newmtl Bojka
Kd 0.5881999731063843 0.5881999731063843 0.5881999731063843
Ka 0.5881999731063843 0.5881999731063843 0.5881999731063843
Ks 0.8999999761581421 0.8999999761581421 0.8999999761581421
Ke 0 0 0
d 1
illum 1
map_Kd bojka.bmp

newmtl Bedna
Kd 0.5881999731063843 0.5881999731063843 0.5881999731063843
Ka 0.5881999731063843 0.5881999731063843 0.5881999731063843
Ks 0.8999999761581421 0.8999999761581421 0.8999999761581421
Ke 0 0 0
d 1
illum 1
map_Kd bedna.bmp

newmtl Zed
Kd 0.5881999731063843 0.5881999731063843 0.5881999731063843
Ka 0.5881999731063843 0.5881999731063843 0.5881999731063843
Ks 0.8999999761581421 0.8999999761581421 0.8999999761581421
Ke 0 0 0
d 1
illum 1
map_Kd zed_beton.bmp

newmtl Drevo
Kd 0.5450999736785889 0.1922000050544739 0.5175999999046326
Ka 0.1817000061273575 0.0640999972820282 0.1724999994039536
Ks 0.8999999761581421 0.8999999761581421 0.8999999761581421
Ke 0 0 0
d 1
Ns 3.75
illum 2
map_Kd drevo.bmp