# File produced by Open Asset Import Library (http://www.assimp.sf.net)
# (assimp v4.1.0)

mtllib materials.mtl

# 325 vertex positions
v  2.801966667175293 31.79897117614746 -0.647408127784729
v  3.184036731719971 27.03738784790039 -0.5111374855041504
v  1.947363257408142 31.8111743927002 2.175105810165405
v  2.329433441162109 27.04959106445312 2.311376571655273
v  3.625746965408325 35.4496955871582 -0.4137662649154663
v  2.771143436431885 35.46189880371094 2.408747673034668
v  -2.734517574310303 30.16325378417969 -0.5313577651977539
v  -0.5815197229385376 26.96769332885742 2.295336723327637
v  -0.3818427324295044 30.17545509338379 -2.309516429901123
v  1.771155595779419 26.97989654541016 0.5171787738800049
v  -4.806556701660156 31.68274116516113 -3.262437343597412
v  -2.453881502151489 31.69494438171387 -5.040596008300781
v  -0.9654110670089722 32.55899429321289 3.043142557144165
v  -1.35446572303772 27.79740905761719 3.157965660095215
v  -1.936578750610352 32.57119750976562 0.2585849761962891
v  -2.325633525848389 27.80961227416992 0.3734079599380493
v  -1.768818855285645 36.20972061157227 3.339345932006836
v  -2.739987134933472 36.221923828125 0.55478835105896
v  2.243923664093018 31.68739318847656 2.338275909423828
v  2.232645034790039 26.92581176757812 2.743762969970703
v  -0.7044934034347534 31.6995964050293 2.399570941925049
v  -0.7157716751098633 26.93801498413086 2.805058002471924
v  2.276821613311768 35.33811950683594 3.193916320800781
v  -0.6715953350067139 35.35031890869141 3.25521183013916
v  0.676642894744873 29.61444091796875 -2.61664867401123
v  -1.344540596008301 26.41887855529785 0.3057520389556885
v  3.095857620239258 29.62664413452148 -0.9301345348358154
v  1.074674248695374 26.43107986450195 1.992265701293945
v  2.631977558135986 31.13393211364746 -5.432464599609375
v  5.051191329956055 31.1461353302002 -3.745949983596802
v  2.294782161712646 24.65644836425781 -7.754393577575684
v  -2.121045112609863 26.70359039306641 -3.441843271255493
v  5.189239501953125 23.08696556091309 -4.045591831207275
v  0.7734136581420898 25.13410568237305 0.2669577598571777
v  4.901123046875 21.34280967712402 -11.19072246551514
v  7.795580387115479 19.77332496643066 -7.48192024230957
v  -5.99402904510498 24.92219352722168 5.763768196105957
v  0.1115946769714355 26.96933555603027 4.858798027038574
v  -6.164649486541748 23.35270881652832 1.062281608581543
v  -0.05902624130249023 25.39984893798828 0.1573114395141602
v  -10.12004566192627 21.60855293273926 7.019689083099365
v  -10.2906665802002 20.0390682220459 2.318202018737793
v  -7.384744167327881 23.93888092041016 -4.567281246185303
v  -4.651334285736084 25.98602485656738 0.9668054580688477
v  -2.962009906768799 22.3693962097168 -6.171192169189453
v  -0.2286005020141602 24.41653823852539 -0.6371059417724609
v  -9.845239639282227 20.62524032592773 -8.109499931335449
v  -5.422505855560303 19.05575561523438 -9.713412284851074
v  7.713050842285156 24.65817070007324 0.7008466720581055
v  2.245192289352417 26.70531272888184 -2.162743091583252
v  5.082676887512207 23.08868598937988 4.601387977600098
v  -0.3851804733276367 25.13582801818848 1.737799048423767
v  11.78748893737793 21.34453010559082 2.115161657333374
v  9.157116889953613 19.77504539489746 6.015701770782471
v  3.377662420272827 24.87893295288086 8.056244850158691
v  4.407587051391602 26.92607498168945 1.970450878143311
v  -1.145623683929443 23.30944633483887 6.762805461883545
v  -0.1156977415084839 25.35659027099609 0.6770114898681641
v  3.294367790222168 21.56529235839844 12.36837005615234
v  -1.228917598724365 19.99580574035645 11.07493114471436
v  -6.247090339660645 29.54964828491211 1.421494007110596
v  -2.032496452331543 26.545166015625 1.488850355148315
v  -5.180054664611816 30.9673957824707 -2.104959011077881
v  -0.9654598236083984 27.96291542053223 -2.03760290145874
v  -10.32903099060059 30.79001998901367 0.68504798412323
v  -9.261994361877441 32.20776748657227 -2.841404914855957
v  -0.8149716854095459 29.54964447021484 6.91644287109375
v  0.5413670539855957 26.54516410827637 2.925493717193604
v  -3.844417572021484 30.9673900604248 4.819563388824463
v  -2.488078117370605 27.96290969848633 0.8286137580871582
v  -2.767501831054688 30.79001426696777 10.57597923278809
v  -5.796945571899414 32.207763671875 8.479097366333008
v  6.071348190307617 29.54964637756348 3.449221611022949
v  2.696456432342529 26.545166015625 0.9238595962524414
v  3.139533996582031 30.96739196777344 5.680567741394043
v  -0.235356330871582 27.96291160583496 3.155206203460693
v  8.94651985168457 30.79001426696777 6.438864707946777
v  6.014705657958984 32.20775985717773 8.670211791992188
v  -2.700911521911621 29.54964447021484 -5.424499034881592
v  -1.460037350654602 26.54516220092773 -1.396152973175049
v  0.9826279878616333 30.96739196777344 -5.501755714416504
v  2.223501205444336 27.96291351318359 -1.473406791687012
v  -3.264501094818115 30.79001235961914 -9.533872604370117
v  0.419039249420166 32.207763671875 -9.611127853393555
v  4.906639099121094 29.54964637756348 -4.172228813171387
v  1.460442066192627 26.545166015625 -1.74507737159729
v  6.120593070983887 30.96739196777344 -0.6936156749725342
v  2.674395084381104 27.96291160583496 1.733535766601562
v  8.639583587646484 30.79001426696777 -5.980465888977051
v  9.853536605834961 32.207763671875 -2.501850843429565
v  -8.081060409545898 25.43879318237305 1.590805768966675
v  -1.719815731048584 25.27631568908691 2.931175231933594
v  -7.052475929260254 25.79135513305664 -3.248006105422974
v  -0.6912312507629395 25.62887954711914 -1.907635927200317
v  -13.08053016662598 23.65970039367676 0.3984423875808716
v  -12.05194282531738 24.01226234436035 -4.44036865234375
v  -1.216961860656738 25.43878936767578 8.713564872741699
v  2.009255886077881 25.27631187438965 3.0696702003479
v  -5.507343769073486 25.79135131835938 6.250904560089111
v  -2.281126499176025 25.62887382507324 0.6070113182067871
v  -3.884769439697266 23.65969657897949 13.10664939880371
v  -8.175151824951172 24.01226043701172 10.64398956298828
v  7.654859066009521 25.43879127502441 4.387447357177734
v  3.287197351455688 25.27631568908691 -0.4276905059814453
v  3.984830617904663 25.79135322570801 7.704519271850586
v  -0.3828310966491699 25.62887763977051 2.889381408691406
v  11.00607109069824 23.65969848632812 8.284342765808105
v  7.336042404174805 24.01226234436035 11.60141563415527
v  -3.429886817932129 25.43878936767578 -7.114999294281006
v  -2.734829425811768 25.27631187438965 -0.6513385772705078
v  1.489616632461548 25.79135131835938 -7.635147094726562
v  2.184674978256226 25.62887573242188 -1.171485900878906
v  -3.844046592712402 23.65969657897949 -12.23797607421875
v  1.075456857681274 24.01225852966309 -12.75812339782715
v  6.288210391998291 25.43878936767578 -5.387859344482422
v  0.3573741912841797 25.27631378173828 -2.725682258605957
v  8.305971145629883 25.79135131835938 -0.8711457252502441
v  2.375134944915771 25.62887573242188 1.791031360626221
v  11.03121376037598 23.65969848632812 -7.367839336395264
v  13.04897499084473 24.01226043701172 -2.851125717163086
v  -5.567378997802734 28.21699523925781 6.257313251495361
v  -0.6774148941040039 24.9639892578125 3.46542501449585
v  -7.398661136627197 29.30752563476562 1.779196262359619
v  -2.508697986602783 26.05452156066895 -1.012691497802734
v  -10.44021606445312 29.16301155090332 8.480390548706055
v  -12.27149868011475 30.2535400390625 4.002274036407471
v  3.974345207214355 28.21699142456055 7.761581420898438
v  2.833675146102905 24.96398735046387 2.247485160827637
v  -0.850719690322876 29.30752182006836 8.116365432739258
v  -1.991389989852905 26.05451774597168 2.602269649505615
v  4.579459190368652 29.16300964355469 13.08328056335449
v  -0.24560546875 30.25353622436523 13.43806266784668
v  8.35899543762207 28.21699142456055 -0.8455157279968262
v  2.762686252593994 24.96398544311523 -1.468167066574097
v  7.202413558959961 29.30752182006836 3.852296829223633
v  1.606103897094727 26.05451774597168 3.229645967483521
v  13.60654449462891 29.16300964355469 0.2268049716949463
v  12.4499626159668 30.25353622436523 4.924617767333984
v  1.532418012619019 28.21699523925781 -7.679635524749756
v  -0.792363166809082 24.96399116516113 -2.551110506057739
v  5.641281127929688 29.30752563476562 -5.125351905822754
v  3.316500425338745 26.05451965332031 0.003172874450683594
v  4.176788330078125 29.16301155090332 -12.33730888366699
v  8.285653114318848 30.2535400390625 -9.783026695251465
v  -7.079514503479004 28.21698570251465 -3.304489612579346
v  -2.922798633575439 24.9639835357666 0.4939436912536621
v  -3.378562927246094 29.30751609802246 -6.420592308044434
v  0.7781524658203125 26.05451202392578 -2.622158527374268
v  -10.68956565856934 29.16300201416016 -7.261023998260498
v  -6.988614082336426 30.25353050231934 -10.37712669372559
v  2.926343679428101 31.13494873046875 1.435230731964111
v  2.154212713241577 26.54330825805664 0.3591799736022949
v  0.53029465675354 31.13494873046875 3.154540777206421
v  -0.2418363094329834 26.54330825805664 2.078490018844604
v  4.153588771820068 34.23812866210938 3.145535230636597
v  1.757539987564087 34.23812866210938 4.864845275878906
v  -1.357713937759399 31.69040870666504 -1.801555395126343
v  -1.367210507392883 27.09876823425293 -0.4771735668182373
v  1.591291785240173 31.69040870666504 -1.780408143997192
v  1.581795215606689 27.09876823425293 -0.4560263156890869
v  -1.3426194190979 34.79358673095703 -3.906558990478516
v  1.606386303901672 34.79358673095703 -3.885410785675049
v  -2.478042602539062 31.89497566223145 1.545487880706787
v  -1.220361590385437 27.3033332824707 1.960590839385986
v  -1.553729772567749 31.89497566223145 -1.254998683929443
v  -0.2960488796234131 27.3033332824707 -0.839895486831665
v  -4.477035522460938 34.9981575012207 0.885711133480072
v  -3.552722930908203 34.9981575012207 -1.914775133132935
v  0.08914953470230103 28.63119697570801 3.702266693115234
v  2.730262756347656 26.9175853729248 0.1070919036865234
v  -2.287536382675171 28.63119697570801 1.956289410591125
v  0.3535770177841187 26.9175853729248 -1.638885974884033
v  -2.127941846847534 28.82429695129395 6.720249652862549
v  -4.504627227783203 28.82429695129395 4.974271774291992
v  2.166539192199707 31.14158058166504 -1.427335500717163
v  0.9042973518371582 26.54994201660156 -1.026311993598938
v  3.059499263763428 31.14158058166504 1.383304953575134
v  1.797258257865906 26.54994201660156 1.78432822227478
v  4.17277717590332 34.2447624206543 -2.064732074737549
v  5.065738201141357 34.2447624206543 0.7459083199501038
v  7.336726188659668 23.79438209533691 -4.315343379974365
v  2.297550916671753 27.75466918945312 -3.214770078659058
v  6.873126029968262 21.9334545135498 0.2583205699920654
v  1.833950996398926 25.89374160766602 1.358892917633057
v  10.08733367919922 19.3575267791748 -5.841797351837158
v  9.623735427856445 17.49659729003906 -1.268133163452148
v  -8.047313690185547 24.06012535095215 0.2278245687484741
v  -3.31970739364624 28.02041244506836 2.29041576385498
v  -4.990439891815186 22.19919776916504 -3.205664157867432
v  -0.2628331184387207 26.15948486328125 -1.143073558807373
v  -11.17054748535156 19.62327003479004 -0.1480802893638611
v  -8.113674163818359 17.7623405456543 -3.581569671630859
v  -2.099946022033691 23.07681083679199 -8.466324806213379
v  -2.613680362701416 27.0370979309082 -3.334014415740967
v  2.105432510375977 21.21588325500488 -6.609413146972656
v  1.591699123382568 25.17617034912109 -1.47710132598877
v  -2.699751377105713 18.63995361328125 -11.55438804626465
v  1.505627870559692 16.77902603149414 -9.697476387023926
v  5.697840690612793 23.79610443115234 5.716419219970703
v  3.091123342514038 27.75638961791992 1.265624761581421
v  1.205383777618408 21.9351749420166 6.691694259643555
v  -1.401333332061768 25.89546394348145 2.240900039672852
v  8.000926971435547 19.3592472076416 7.859244346618652
v  3.508469104766846 17.49831962585449 8.834522247314453
v  -2.557652950286865 24.01687240600586 8.299871444702148
v  0.8673443794250488 27.97715759277344 4.443196296691895
v  -4.875953197479248 22.15594291687012 4.330136775970459
v  -1.450958728790283 26.11623191833496 0.4734616279602051
v  -3.882100820541382 19.58001518249512 11.15324592590332
v  -6.20040225982666 17.71908950805664 7.183509826660156
v  1.60340404510498 -0.2178246825933456 0.2896461486816406
v  1.030442953109741 -0.2178246825933456 -0.7027517557144165
v  0.7710822820663452 7.584615707397461 -0.3210085034370422
v  1.228883504867554 7.584615707397461 0.4719264805316925
v  -0.1154792904853821 -0.2178246825933456 -0.7027515769004822
v  -0.1445202231407166 7.584615707397461 -0.3210084438323975
v  -0.6884403228759766 -0.2178246825933456 0.2896462380886078
v  -0.6023212671279907 7.584615707397461 0.4719265699386597
v  -0.1154791116714478 -0.2178246825933456 1.282043933868408
v  -0.1445200443267822 7.584615707397461 1.264861345291138
v  1.03044319152832 -0.2178246825933456 1.282043814659119
v  0.7710824012756348 7.584615707397461 1.264861345291138
v  0.8016728162765503 25.66625022888184 -0.3065100312232971
v  1.145863652229309 25.66625022888184 0.2896461486816406
v  0.113290935754776 25.66625022888184 -0.3065099716186523
v  -0.2308999300003052 25.66625022888184 0.2896462082862854
v  0.1132909953594208 25.66625022888184 0.8858022689819336
v  0.8016728758811951 25.66625022888184 0.885802149772644
v  1.268147110939026 27.19576454162598 -1.114467263221741
v  2.078812122344971 27.19576454162598 0.2896460890769958
v  -0.3531835675239563 27.19576454162598 -1.114467263221741
v  -1.163848519325256 27.19576454162598 0.2896462976932526
v  -0.3531832695007324 27.19576454162598 1.693759560585022
v  1.268147349357605 27.19576454162598 1.693759322166443
v  0.4574818909168243 29.61547470092773 0.2896461188793182
v  -5.315742969512939 28.84407806396484 -3.239652633666992
v  -2.19730281829834 27.41450500488281 0.6366696357727051
v  -2.180028915405273 30.0263671875 -5.326260566711426
v  0.9384112358093262 28.59679794311523 -1.44993782043457
v  -7.638343811035156 28.57370185852051 -6.883210182189941
v  -4.502630233764648 29.75599098205566 -8.969818115234375
v  -4.974116802215576 28.84407806396484 4.612147331237793
v  -0.3283557891845703 27.41450500488281 2.832413196563721
v  -5.998791217803955 30.0263729095459 0.9876941442489624
v  -1.353030204772949 28.59679985046387 -0.7920398712158203
v  -9.154313087463379 28.57370185852051 5.705740928649902
v  -10.17898750305176 29.75599479675293 2.081287384033203
v  2.584477424621582 28.84407806396484 6.701828479766846
v  2.330613136291504 27.41450500488281 1.733316898345947
v  -1.179132580757141 30.02637100219727 6.553952693939209
v  -1.432997584342957 28.59679794311523 1.585440158843994
v  2.330064296722412 28.57370185852051 11.01521110534668
v  -1.433545827865601 29.75599479675293 10.86733436584473
v  2.032788276672363 28.84407615661621 -5.977935791015625
v  -0.6875247955322266 27.41450309753418 -1.81254768371582
v  4.987737655639648 30.02637100219727 -3.64236307144165
v  2.2674241065979 28.59679794311523 0.5230240821838379
v  4.778182029724121 28.57369995117188 -9.314521789550781
v  7.73313045501709 29.75599479675293 -6.978949546813965
v  6.911760330200195 28.84407615661621 0.1616686582565308
v  2.108796119689941 27.41450309753418 -1.135287046432495
v  5.605865955352783 30.02637100219727 3.69455099105835
v  0.8029017448425293 28.59679412841797 2.397595405578613
v  10.93441390991211 28.57369995117188 1.739084005355835
v  9.628519058227539 29.7559928894043 5.271967887878418
v  -6.803469657897949 24.63059997558594 -4.354635238647461
v  -3.2166907787323 26.80010604858398 0.6169471740722656
v  -2.781466960906982 24.63059997558594 -7.25633430480957
v  0.8053131103515625 26.80010604858398 -2.284751653671265
v  -9.23876953125 21.12964630126953 -7.730167388916016
v  -5.216765403747559 21.12964820861816 -10.63186550140381
v  -6.491885185241699 24.6305980682373 5.685478687286377
v  -0.6600189208984375 26.80010414123535 3.795771598815918
v  -8.020654678344727 24.6305980682373 0.9675087928771973
v  -2.188788414001465 26.80010414123535 -0.9221982955932617
v  -10.45151805877686 21.12964630126953 6.968523979187012
v  -11.98028755187988 21.12964630126953 2.250554084777832
v  3.134793758392334 24.6305980682373 8.47646427154541
v  3.143606424331665 26.80010414123535 2.346081733703613
v  -1.8246750831604 24.6305980682373 8.469334602355957
v  -1.815862417221069 26.80010604858398 2.338952541351318
v  3.12881064414978 21.12964630126953 12.63877868652344
v  -1.830658197402954 21.12964630126953 12.63164901733398
v  2.631621837615967 24.63059997558594 -7.737183570861816
v  -0.9851260185241699 26.80010604858398 -2.787357091903687
v  6.63602352142334 24.63059997558594 -4.811240196228027
v  3.019274950027466 26.80010604858398 0.1385865211486816
v  5.087267875671387 21.12964820861816 -11.09794330596924
v  9.091669082641602 21.12964630126953 -8.171998977661133
v  8.769237518310547 24.6305980682373 0.1869750022888184
v  2.942829132080078 26.80010414123535 -1.719486713409424
v  7.226912975311279 24.63059616088867 4.900530815124512
v  1.400503158569336 26.80010414123535 2.994068145751953
v  12.72516822814941 21.1296443939209 1.481396675109863
v  11.18284225463867 21.1296443939209 6.194952011108398
v  -8.109035491943359 27.49573135375977 0.8651947975158691
v  -1.955045223236084 26.42169380187988 2.671643257141113
v  -6.606568336486816 28.25956535339355 -3.799086809158325
v  -0.452578067779541 27.18552207946777 -1.992639064788818
v  -13.14279460906982 26.47434997558594 -0.9235514998435974
v  -11.64032745361328 27.23817825317383 -5.587833404541016
v  -1.946485638618469 27.49572563171387 8.521533966064453
v  1.676587581634521 26.42168998718262 3.229254245758057
v  -5.916376113891602 28.25955772399902 5.648745536804199
v  -2.293303489685059 27.18551635742188 0.3564667701721191
v  -5.205881118774414 26.47434234619141 12.75410652160645
v  -9.175771713256836 27.2381706237793 9.881319999694824
v  7.241668701171875 27.49573135375977 5.032355308532715
v  3.331222534179688 26.42169380187988 -0.05127286911010742
v  3.280893802642822 28.25956153869629 7.917698860168457
v  -0.629551887512207 27.18552207946777 2.834070920944214
v  10.25708484649658 26.4743480682373 9.442071914672852
v  6.296310424804688 27.23817443847656 12.32741546630859
v  6.768776893615723 27.49572372436523 -4.784613132476807
v  0.7242050170898438 26.42168807983398 -2.64031457901001
v  8.286004066467285 28.25955581665039 -0.1251106262207031
v  2.241432189941406 27.18551635742188 2.019188404083252
v  11.89543533325195 26.47434043884277 -6.286520957946777
v  13.41266250610352 27.23816871643066 -1.627017498016357
v  -2.712208986282349 27.4957275390625 -7.374484062194824
v  -2.544794321060181 26.42169189453125 -0.9630227088928223
v  2.188091516494751 28.25955963134766 -7.374484062194824
v  2.355506181716919 27.18551826477051 -0.9630227088928223
v  -2.553001403808594 26.47434425354004 -12.71424198150635
v  2.347298622131348 27.23817443847656 -12.71424198150635

# 51 UV coordinates
vt 0 0.5 0
vt 0 0 0
vt 1 0.5 0
vt 1 0 0
vt 0 1 0
vt 1 1 0
vt 0.2374818176031113 0.01098132506012917 0
vt 0.2683133482933044 0.01111543551087379 0
vt 0.2524070739746094 0.3054365515708923 0
vt 0.2116204351186752 0.3053464293479919 0
vt 0.3062344193458557 0.0112764872610569 0
vt 0.2995100021362305 0.3055389523506165 0
vt 0.03931961953639984 0.01062882319092751 0
vt 0.08529864251613617 0.01062882319092751 0
vt 0.08264760673046112 0.3051908016204834 0
vt 0.04168342053890228 0.3051908016204834 0
vt 0.1379098743200302 0.01064145937561989 0
vt 0.1236100047826767 0.3051918745040894 0
vt 0.1946200579404831 0.01079273596405983 0
vt 0.1708288639783859 0.3052582740783691 0
vt 0.2392182797193527 0.9886183738708496 0
vt 0.2007800787687302 0.9884830713272095 0
vt 0.2836090922355652 0.9887720346450806 0
vt 0.07924728095531464 0.9882429838180542 0
vt 0.04064165055751801 0.9882429838180542 0
vt 0.117855116724968 0.9882407188415527 0
vt 0.1623481959104538 0.9883436560630798 0
vt 0.9421741962432861 0.461498498916626 0
vt 0.9979066848754883 0.5580300688743591 0
vt 0.9421741962432861 0.6545615792274475 0
vt 0.8307092189788818 0.6545615792274475 0
vt 0.7749766707420349 0.5580300688743591 0
vt 0.8307091593742371 0.4614985883235931 0
vt 0.7758216261863708 0.9339696764945984 0
vt 0.7186376452445984 0.9338465332984924 0
vt 0.796457827091217 0.7854436635971069 0
vt 0.9311415553092957 0.7857337594032288 0
vt 0.6042699813842773 0.933600127696991 0
vt 0.5270898938179016 0.7848635315895081 0
vt 0.5470861196517944 0.9334770441055298 0
vt 0.3924059867858887 0.7845735549926758 0
vt 0.7755787372589111 0.4718004465103149 0
vt 0.7183947563171387 0.4716781973838806 0
vt 0.7962126731872559 0.3232741951942444 0
vt 0.930896520614624 0.3235622644424438 0
vt 0.6040270328521729 0.4714335203170776 0
vt 0.5268449783325195 0.3226979076862335 0
vt 0.5468430519104004 0.4713111519813538 0
vt 0.3921612501144409 0.3224097490310669 0
vt 0.6622800230979919 0.5501145124435425 0
vt 0.6620316505432129 0.08794695138931274 0

# 310 vertex normals
vn -0.01695550233125687 0.005880134645849466 -0.005159236490726471
vn -0.01640154607594013 0.001133596058934927 -0.004970988724380732
vn -0.01673264056444168 0.003324703313410282 -0.005080710630863905
vn -0.01698138564825058 0.008791245520114899 -0.005179660860449076
vn 0.003560388460755348 0.01768211461603642 0.00483208242803812
vn 0.005641273222863674 0.0143524156883359 0.007562444545328617
vn 0.004709128756076097 0.01595228724181652 0.00634010648354888
vn 0.00216573616489768 0.01946271397173405 0.002999041695147753
vn 0.00216573616489768 0.01946271397173405 0.00299904216080904
vn 0.01674246229231358 0.005880130920559168 -0.005813486408442259
vn 0.01618387177586555 0.001133590936660767 -0.005639469251036644
vn 0.01651609316468239 0.003324699588119984 -0.005745734088122845
vn 0.0161838736385107 0.001133592566475272 -0.005639468785375357
vn 0.01677540875971317 0.008791239932179451 -0.005812219809740782
vn 0.01677541062235832 0.008791243657469749 -0.005812217947095633
vn -0.000344040512572974 0.005880134645849466 -0.01771971769630909
vn -0.0003515243588481098 0.00113359373062849 -0.01713469624519348
vn -0.0003497065627016127 0.003324702382087708 -0.01748349331319332
vn -0.0003326344594825059 0.008791243657469749 -0.01775064878165722
vn -0.003492278978228569 0.01768212206661701 0.004881542176008224
vn -0.005444192327558994 0.01435242220759392 0.007705549243837595
vn -0.004570529796183109 0.01595229655504227 0.006440750323235989
vn -0.002181125339120626 0.01946271955966949 0.00298788002692163
vn -0.002181125804781914 0.01946271955966949 0.002987879794090986
vn 0.02689300291240215 0.03682162240147591 -0.005405969452112913
vn 0.02044566720724106 0.04108791798353195 0.001431123819202185
vn 0.02360793203115463 0.03934212774038315 -0.001775579527020454
vn 0.02044566720724106 0.04108791798353195 0.001431123353540897
vn 0.03010041639208794 0.03338538482785225 -0.009363273158669472
vn 0.03010041825473309 0.03338538482785225 -0.009363275021314621
vn -0.02495612390339375 0.0368216261267662 -0.0113863879814744
vn -0.01572471484541893 0.04108791798353195 -0.01314560789614916
vn -0.02016648463904858 0.03934213146567345 -0.01240161992609501
vn -0.01572471484541893 0.04108791798353195 -0.01314560696482658
vn -0.02987451478838921 0.03338538855314255 -0.01006078347563744
vn -0.02987451665103436 0.03338539600372314 -0.01006078813225031
vn 0.003186255227774382 0.0368216261267662 -0.0272452849894762
vn 0.007691160775721073 0.04108791798353195 -0.01899787969887257
vn 0.005621129646897316 0.03934213146567345 -0.02299760654568672
vn 0.007691161707043648 0.04108791798353195 -0.01899788156151772
vn 0.0004164893180131912 0.03338539227843285 -0.03152034804224968
vn 0.01346691884100437 0.03682165592908859 0.02389771491289139
vn 0.004969582427293062 0.04108794406056404 0.01988409459590912
vn 0.008997808210551739 0.03934215754270554 0.02189810946583748
vn 0.004969584755599499 0.04108794778585434 0.01988409645855427
vn 0.01822283864021301 0.03338541835546494 0.02572226151823997
vn -0.01855379156768322 0.0368216447532177 0.02020433731377125
vn -0.01736832782626152 0.04108793660998344 0.01088185980916023
vn -0.01803616061806679 0.03934214264154434 0.01533571723848581
vn -0.01736833155155182 0.04108793288469315 0.01088185980916023
vn -0.01881616562604904 0.03338540345430374 0.02529146894812584
vn -0.01881616190075874 0.03338539972901344 0.02529146894812584
vn 0.009280240163207054 0.02449657768011093 0.01265642326325178
vn 0.01494839414954185 0.02126218378543854 0.01307117007672787
vn 0.0123773068189621 0.02291844412684441 0.01295907609164715
vn 0.01494838856160641 0.02126218378543854 0.01307117380201817
vn 0.005668455269187689 0.0258408859372139 0.01210402976721525
vn 0.005668461322784424 0.0258408859372139 0.01210402604192495
vn 0.01489223726093769 0.02449657954275608 -0.004952703602612019
vn 0.01702490076422691 0.02126218937337399 -0.01022069156169891
vn 0.01612989231944084 0.02291844598948956 -0.007807805202901363
vn 0.0132590476423502 0.0258408859372139 -0.001684257760643959
vn 0.01325904671102762 0.02584088407456875 -0.001684257294982672
vn -9.842240251600742e-05 0.02449659258127213 -0.01569388620555401
vn -0.004447243176400661 0.02126219309866428 -0.01935282722115517
vn -0.002430031774565578 0.02291845716536045 -0.01775472052395344
vn -0.004447243642061949 0.02126219309866428 -0.01935282535851002
vn 0.002503754105418921 0.02584089711308479 -0.01312896981835365
vn 0.002503755036741495 0.02584089711308479 -0.01312896981835365
vn -0.009161168709397316 0.02449657581746578 0.01274288538843393
vn -0.007800562772899866 0.02126218564808369 0.01826091855764389
vn -0.008490035310387611 0.02291844226419926 0.015781469643116
vn -0.007800569292157888 0.02126218751072884 0.01826091855764389
vn -0.009754197672009468 0.02584087662398815 0.009137552231550217
vn -0.009754193015396595 0.0258408822119236 0.009137557819485664
vn -0.01495317835360765 0.02449657395482063 -0.004765552934259176
vn -0.01977879554033279 0.02126218378543854 -0.001763310050591826
vn -0.01763465441763401 0.02291843853890896 -0.003186590736731887
vn -0.0197787918150425 0.02126217819750309 -0.001763309817761183
vn -0.01170862372964621 0.0258408822119236 -0.006445720791816711
vn -0.01170862466096878 0.0258408822119236 -0.006445713341236115
vn -0.009596516378223896 0.04488524049520493 0.00123047165106982
vn 0.0004465212114155293 0.04578559845685959 0.003430914133787155
vn -0.004274329170584679 0.04565278068184853 0.002417727140709758
vn -0.01536959782242775 0.04326724261045456 -0.0001145894639194012
vn -0.01536959037184715 0.04326724261045456 -0.0001145959831774235
vn -0.001771145267412066 0.04488521069288254 0.009511582553386688
vn 0.003402579575777054 0.0457855723798275 0.0006269360892474651
vn 0.0009907465428113937 0.04565275460481644 0.004809758625924587
vn 0.003402575617656112 0.0457855761051178 0.0006269258446991444
vn -0.004821495153009892 0.04326721653342247 0.0145941860973835
vn 0.008495811372995377 0.04488522931933403 0.004629076458513737
vn 0.001649637706577778 0.04578559100627899 -0.003041267162188888
vn 0.004880170337855816 0.04565277323126793 0.0005471301265060902
vn 0.01238421630114317 0.04326723515987396 0.009103203192353249
vn 0.01238421536982059 0.04326723515987396 0.009103204123675823
vn -0.00414127204567194 0.04488523676991463 -0.008743969723582268
vn -0.003124078270047903 0.04578559100627899 0.0014868532307446
vn -0.003622341202571988 0.04565277323126793 -0.003315717680379748
vn -0.003124087583273649 0.04578559100627899 0.001486847177147865
vn -0.004649762995541096 0.04326723515987396 -0.01464982144534588
vn -0.004649754613637924 0.04326723515987396 -0.01464981492608786
vn 0.007032078690826893 0.04488522559404373 -0.006645075045526028
vn -0.002381064929068089 0.04578559100627899 -0.002510194899514318
vn 0.002031238051131368 0.04565276950597763 -0.004470944870263338
vn 0.0124902818351984 0.04326722770929337 -0.008957145735621452
vn 0.0124902781099081 0.04326722770929337 -0.008957132697105408
vn 0.01672926731407642 0.04261359572410583 0.00353616732172668
vn 0.02507419139146805 0.03845498338341713 -0.000889127142727375
vn 0.02130838297307491 0.04065509513020515 0.00118664582259953
vn 0.02507419511675835 0.03845499083399773 -0.0008891259785741568
vn 0.01133808307349682 0.04407460615038872 0.006096621509641409
vn 0.01133807748556137 0.04407460242509842 0.006096630357205868
vn 0.008542093448340893 0.04261360317468643 -0.01481233537197113
vn 0.006918005645275116 0.03845498710870743 -0.0241173580288887
vn 0.007725805975496769 0.04065509513020515 -0.01989389769732952
vn 0.006918014958500862 0.03845499455928802 -0.0241173543035984
vn 0.009307525120675564 0.04407460987567902 -0.008893291465938091
vn 0.009307525120675564 0.04407460987567902 -0.008893293328583241
vn -0.01143967173993587 0.04261359199881554 -0.01270853541791439
vn -0.02079029195010662 0.03845498710870743 -0.01404526364058256
vn -0.01652425713837147 0.04065509513020515 -0.01350570656359196
vn -0.02079029008746147 0.03845498710870743 -0.01404526270925999
vn -0.005574506707489491 0.04407460615038872 -0.01160369720309973
vn -0.005574498325586319 0.04407460615038872 -0.01160370372235775
vn -0.01562598906457424 0.04261359572410583 0.006942707113921642
vn -0.01979216001927853 0.03845499455928802 0.01541998144239187
vn -0.01795827224850655 0.04065509513020515 0.01153063494712114
vn -0.01979216001927853 0.03845499455928802 0.01541998982429504
vn -0.01275947969406843 0.04407460242509842 0.001707825809717178
vn 0.001763443811796606 0.04261359944939613 0.01700773648917675
vn 0.008534222841262817 0.03845499455928802 0.02359391376376152
vn 0.005403801333159208 0.04065509513020515 0.02064592018723488
vn 0.008534231223165989 0.03845499083399773 0.02359390817582607
vn -0.002326671732589602 0.04407460242509842 0.01266126520931721
vn -0.002326672663912177 0.04407460242509842 0.01266126520931721
vn -0.008423315361142159 0.01182922162115574 -0.01173883955925703
vn -0.009094540029764175 0.007187412586063147 -0.01267426647245884
vn -0.008827564306557178 0.009358338080346584 -0.01230220776051283
vn -0.00783309992402792 0.01455882098525763 -0.01091630849987268
vn -0.007833098992705345 0.0145588219165802 -0.01091630849987268
vn -0.000103599282738287 0.01182921417057514 0.01444788835942745
vn -0.0001118550717364997 0.007187405601143837 0.01559919584542513
vn -0.0001085713302018121 0.009358330629765987 0.0151412719860673
vn -0.0001118548316298984 0.007187405601143837 0.01559919584542513
vn -9.633979061618447e-05 0.01455882005393505 0.01343553047627211
vn 0.01372025907039642 0.01182920858263969 0.004528434481471777
vn 0.01481358148157597 0.007187406066805124 0.004889289382845163
vn 0.01437872089445591 0.009358328767120838 0.004745761398226023
vn 0.01275889296084642 0.0145588107407093 0.004211131483316422
vn 0.01275889296084642 0.0145588107407093 0.004211130551993847
vn -0.0004253829247318208 0.0186592098325491 0.0005790474824607372
vn 0.002177599119022489 0.01677729561924934 -0.002964223269373178
vn 0.000988973886705935 0.01772167719900608 -0.00134622526820749
vn 0.002177599351853132 0.01677729561924934 -0.002964223269373178
vn -0.002075825817883015 0.01949841342866421 0.002825688570737839
vn -0.002075825817883015 0.01949841342866421 0.002825688337907195
vn -0.01377002522349358 0.01182921789586544 0.004374834708869457
vn -0.01486730948090553 0.007187412586063147 0.004723450168967247
vn -0.01443087123334408 0.009358333423733711 0.004584790207445621
vn -0.01280516944825649 0.01455882005393505 0.004068291746079922
vn -0.01280516944825649 0.01455882005393505 0.004068292677402496
vn 0.03592516481876373 0.02503039501607418 0.01382581051439047
vn 0.02870341017842293 0.03208635002374649 0.01596471481025219
vn 0.03228234127163887 0.02897131443023682 0.01506004109978676
vn 0.03937827795743942 0.02021008916199207 0.0122145414352417
vn 0.03937827795743942 0.02021009102463722 0.012214545160532
vn -0.02099880203604698 0.02503039687871933 -0.03226176649332047
vn -0.01389429531991482 0.03208635002374649 -0.02976081892848015
vn -0.01732406578958035 0.02897131443023682 -0.03112605586647987
vn -0.01389429718255997 0.03208635002374649 -0.02976081892848015
vn -0.02474087476730347 0.02021008729934692 -0.03298079967498779
vn -0.02474087849259377 0.02021008729934692 -0.03298079594969749
vn 0.02426953986287117 0.02503039315342903 -0.02987909317016602
vn 0.02406734600663185 0.03208634629845619 -0.02234996482729912
vn 0.02431523241102695 0.02897131256759167 -0.02603313326835632
vn 0.024067347869277 0.03208635002374649 -0.02234996110200882
vn 0.02380660176277161 0.02021009102463722 -0.03366139158606529
vn -0.002023299224674702 0.02503039874136448 0.03844057023525238
vn -0.006293094251304865 0.03208635374903679 0.03223592787981033
vn -0.004324769135564566 0.02897131443023682 0.03535888716578484
vn -0.006293095648288727 0.03208635002374649 0.03223592787981033
vn 0.0005779375787824392 0.02021009474992752 0.04122511297464371
vn -0.03717807680368423 0.02503039874136448 0.009978056885302067
vn -0.03260033577680588 0.03208635002374649 0.003997002728283405
vn -0.03496040776371956 0.02897131443023682 0.006835535634309053
vn -0.03260033577680588 0.03208635002374649 0.003997004125267267
vn -0.03902039676904678 0.02021008916199207 0.01331362035125494
vn -0.03902039676904678 0.02021008916199207 0.01331361941993237
vn 0.02886762656271458 0.004378858488053083 -0.004757710266858339
vn 0.01030997186899185 0.004920042585581541 -0.02736954763531685
vn 0.01389218494296074 0.001742089167237282 -0.02578504756093025
vn 0.02927869744598866 0.001408483483828604 -0.000861602951772511
vn -0.01856670342385769 0.003037845017388463 -0.02263659425079823
vn -0.01538381259888411 0.001900222385302186 -0.02492252923548222
vn -0.02890465408563614 0.0006077402504161 0.004763814620673656
vn -0.02927672117948532 0.001724806847050786 0.0008615446859039366
vn -0.01032699830830097 6.417031545424834e-05 0.02741475403308868
vn -0.01389322336763144 0.001391197671182454 0.02578697912395
vn 0.01857355795800686 0.001952079473994672 0.02264495007693768
vn 0.01538600400090218 0.001233012066222727 0.02492607943713665
vn 0.01997393928468227 -4.858702595811337e-05 -0.02143029868602753
vn 0.02854550816118717 0.000577552942559123 0.006582636851817369
vn -0.008572110906243324 0.0004232684150338173 -0.02801274880766869
vn -0.02854166179895401 0.001521048368886113 -0.006581751629710197
vn -0.01996767148375511 0.002146767685189843 0.02142358012497425
vn 0.008570578880608082 0.001675260602496564 0.0280077401548624
vn 0 -0.08570240437984467 0
vn 0.02416616305708885 -0.04312275722622871 -0.007545244880020618
vn 0.005548705346882343 -0.04312276095151901 -0.02470113150775433
vn 0.01564292795956135 0.009758892469108105 -0.02454357594251633
vn 0.02907682582736015 0.009758895263075829 0.001275381771847606
vn -0.01861745677888393 -0.04312276840209961 -0.01715588383376598
vn -0.01343389693647623 0.009758892469108105 -0.02581895887851715
vn -0.02416616305708885 -0.04312275722622871 0.00754524627700448
vn -0.02907682582736015 0.009758892469108105 -0.001275380491279066
vn -0.005548703949898481 -0.04312276095151901 0.02470113709568977
vn -0.0156429223716259 0.009758895263075829 0.02454357966780663
vn 0.01861745677888393 -0.04312275722622871 0.01715588755905628
vn 0.01343389879912138 0.009758895263075829 0.02581895887851715
vn 0 0.08570240437984467 5.113443557469566e-10
vn -0.006134920753538609 0.02769247256219387 0.006471395492553711
vn -0.002277907216921449 0.02656910568475723 0.01163113117218018
vn -0.004106493666768074 0.02726614288985729 0.009278115816414356
vn -0.002277908148244023 0.02656910568475723 0.01163113117218018
vn -0.008293140679597855 0.02769788540899754 0.00323113240301609
vn -0.008293141610920429 0.02769788540899754 0.00323113240301609
vn 0.004278698470443487 0.02769248373806477 0.00782361812889576
vn 0.01037250645458698 0.02656911313533783 0.005734391044825315
vn 0.007572164293378592 0.02726615406572819 0.006753453984856606
vn 0.01037250645458698 0.02656911313533783 0.005734390113502741
vn 0.000532777514308691 0.02769790217280388 0.008884388953447342
vn 0.0005327747203409672 0.02769790031015873 0.008884396404027939
vn 0.008763938210904598 0.02769249118864536 -0.001646101824007928
vn 0.008664129301905632 0.02656912617385387 -0.008087334223091602
vn 0.008766076527535915 0.02726616151630878 -0.005109076388180256
vn 0.008664129301905632 0.02656912617385387 -0.008087333291769028
vn 0.008612785488367081 0.02769790217280388 0.002244189381599426
vn 0.008612785488367081 0.02769790217280388 0.002244189847260714
vn -0.008052889257669449 0.02769248373806477 -0.003829790512099862
vn -0.01176487561315298 0.02656911499798298 0.001435247948393226
vn -0.01009365078061819 0.02726615406572819 -0.001032022526487708
vn -0.01176487468183041 0.02656911499798298 0.001435247715562582
vn -0.005640076473355293 0.02769789472222328 -0.006885206326842308
vn -0.005640076007694006 0.02769789472222328 -0.006885204929858446
vn 0.001148270443081856 0.02769248932600021 -0.008842950686812401
vn -0.005007350351661444 0.02656912058591843 -0.01074237376451492
vn -0.002143874298781157 0.02726615779101849 -0.009917187504470348
vn -0.005007356870919466 0.02656912244856358 -0.01074237003922462
vn 0.004800585564225912 0.02769790589809418 -0.007494713645428419
vn 0.004800593946129084 0.02769790403544903 -0.007494717370718718
vn -0.0143925603479147 0.03877072408795357 -0.01994932070374489
vn -0.008962566033005714 0.04328550025820732 -0.01242289412766695
vn -0.0115734301507473 0.04143679514527321 -0.01604177057743073
vn -0.00896256510168314 0.04328550025820732 -0.01242289319634438
vn -0.01729249954223633 0.0351390466094017 -0.02396887354552746
vn -0.01729249395430088 0.035139050334692 -0.02396887168288231
vn -0.02340134978294373 0.03877073153853416 0.007582768797874451
vn -0.01457254868000746 0.04328551515936852 0.004721960984170437
vn -0.01881763711571693 0.04143679887056351 0.006097502075135708
vn -0.01457254774868488 0.04328550770878792 0.004721960984170437
vn -0.02811644785106182 0.0351390577852726 0.009110609069466591
vn -0.02811644971370697 0.0351390577852726 0.009110607206821442
vn -3.536056829034351e-05 0.03877073153853416 0.02459919080138206
vn -2.20194360736059e-05 0.04328550770878792 0.01531847193837166
vn -2.843343099812046e-05 0.04143679887056351 0.01978085190057755
vn -2.202016548835672e-05 0.04328550398349762 0.01531846914440393
vn -4.24888166890014e-05 0.0351390615105629 0.02955563738942146
vn -4.248597906553186e-05 0.0351390615105629 0.02955563925206661
vn 0.01451281830668449 0.03877073526382446 -0.01986201666295528
vn 0.009037458337843418 0.04328551143407822 -0.01236852537840605
vn 0.01167013496160507 0.04143679887056351 -0.01597156748175621
vn 0.009037458337843418 0.04328551143407822 -0.01236852630972862
vn 0.01743698306381702 0.0351390652358532 -0.02386397868394852
vn 0.01743698120117188 0.0351390615105629 -0.02386398054659367
vn 0.02337945252656937 0.03877072408795357 0.007650003768503666
vn 0.01455891132354736 0.04328549653291702 0.004763830453157425
vn 0.01880002580583096 0.04143678396940231 0.006151567213237286
vn 0.02809013612568378 0.035139050334692 0.009191390126943588
vn 0.02809014171361923 0.0351390540599823 0.009191390126943588
vn -0.004667701199650764 0.04529383778572083 0.005913813132792711
vn 0.005167755298316479 0.04472999274730682 0.008989688940346241
vn 0.0005745068192481995 0.04527915269136429 0.007600037846714258
vn 0.005167764611542225 0.04472998902201653 0.008989682421088219
vn -0.01043522916734219 0.04454134777188301 0.003932726569473743
vn -0.01043523848056793 0.04454134404659271 0.003932731691747904
vn 0.004178002011030912 0.04529381543397903 0.006269359961152077
vn 0.01014797575771809 0.04472997412085533 -0.002130441833287477
vn 0.007404452189803123 0.0452791340649128 0.001806836808100343
vn 0.01014797110110521 0.04472997412085533 -0.002130451146513224
vn 0.0005085282027721405 0.04454133287072182 0.01114009693264961
vn 0.0005085291340947151 0.04454132542014122 0.01114010624587536
vn 0.007254880387336016 0.04529383778572083 -0.002031585201621056
vn 0.001116259023547173 0.04472999274730682 -0.01030893623828888
vn 0.004010614473372698 0.04527915269136429 -0.006481173448264599
vn 0.00111624738201499 0.04472998902201653 -0.01030893623828888
vn 0.01075013168156147 0.04454134777188301 0.002965646330267191
vn 0.01075014285743237 0.04454134777188301 0.002965646795928478
vn 0.0003144971560686827 0.04529383778572083 -0.0075273965485394
vn -0.009456746280193329 0.04472998902201653 -0.004253251478075981
vn -0.004920928739011288 0.04527915269136429 -0.005820231046527624
vn -0.009456749074161053 0.04472998902201653 -0.004253242164850235
vn 0.006148364394903183 0.04454134777188301 -0.009303655475378036
vn 0.006148369982838631 0.04454134777188301 -0.009303663857281208
vn -0.007060132455080748 0.04529383778572083 -0.002629669615998864
vn -0.006972240284085274 0.04472998902201653 0.007675158325582743
vn -0.007057842798531055 0.04527915269136429 0.002877061953768134
vn -0.006972231436520815 0.04472998529672623 0.00767516577616334
vn -0.006942827720195055 0.04454134777188301 -0.008726826868951321
vn -0.006942835636436939 0.04454134777188301 -0.008726834319531918

# Mesh 'Plane100' with 4 faces
g Plane100
usemtl PalmLeaf
f  1/1/1 2/2/2 3/3/3
f  4/4/2 3/3/3 2/2/2
f  5/5/4 1/1/1 6/6/4
f  3/3/3 6/6/4 1/1/1

# Mesh 'Plane99' with 4 faces
g Plane99
usemtl PalmLeaf
f  7/1/5 8/2/6 9/3/7
f  10/4/6 9/3/7 8/2/6
f  11/5/8 7/1/5 12/6/9
f  9/3/7 12/6/9 7/1/5

# Mesh 'Plane98' with 4 faces
g Plane98
usemtl PalmLeaf
f  13/1/10 14/2/11 15/3/12
f  16/4/13 15/3/12 14/2/11
f  17/5/14 13/1/10 18/6/15
f  15/3/12 18/6/15 13/1/10

# Mesh 'Plane97' with 4 faces
g Plane97
usemtl PalmLeaf
f  19/1/16 20/2/17 21/3/18
f  22/4/17 21/3/18 20/2/17
f  23/5/19 19/1/16 24/6/19
f  21/3/18 24/6/19 19/1/16

# Mesh 'Plane96' with 4 faces
g Plane96
usemtl PalmLeaf
f  25/1/20 26/2/21 27/3/22
f  28/4/21 27/3/22 26/2/21
f  29/5/23 25/1/20 30/6/24
f  27/3/22 30/6/24 25/1/20

# Mesh 'Plane95' with 4 faces
g Plane95
usemtl PalmLeaf
f  31/1/25 32/2/26 33/3/27
f  34/4/28 33/3/27 32/2/26
f  35/5/29 31/1/25 36/6/30
f  33/3/27 36/6/30 31/1/25

# Mesh 'Plane94' with 4 faces
g Plane94
usemtl PalmLeaf
f  37/1/31 38/2/32 39/3/33
f  40/4/34 39/3/33 38/2/32
f  41/5/35 37/1/31 42/6/36
f  39/3/33 42/6/36 37/1/31

# Mesh 'Plane93' with 4 faces
g Plane93
usemtl PalmLeaf
f  43/1/37 44/2/38 45/3/39
f  46/4/40 45/3/39 44/2/38
f  47/5/41 43/1/37 48/6/41
f  45/3/39 48/6/41 43/1/37

# Mesh 'Plane92' with 4 faces
g Plane92
usemtl PalmLeaf
f  49/1/42 50/2/43 51/3/44
f  52/4/45 51/3/44 50/2/43
f  53/5/46 49/1/42 54/6/46
f  51/3/44 54/6/46 49/1/42

# Mesh 'Plane91' with 4 faces
g Plane91
usemtl PalmLeaf
f  55/1/47 56/2/48 57/3/49
f  58/4/50 57/3/49 56/2/48
f  59/5/51 55/1/47 60/6/52
f  57/3/49 60/6/52 55/1/47

# Mesh 'Plane90' with 4 faces
g Plane90
usemtl PalmLeaf
f  61/1/53 62/2/54 63/3/55
f  64/4/56 63/3/55 62/2/54
f  65/5/57 61/1/53 66/6/58
f  63/3/55 66/6/58 61/1/53

# Mesh 'Plane89' with 4 faces
g Plane89
usemtl PalmLeaf
f  67/1/59 68/2/60 69/3/61
f  70/4/60 69/3/61 68/2/60
f  71/5/62 67/1/59 72/6/63
f  69/3/61 72/6/63 67/1/59

# Mesh 'Plane88' with 4 faces
g Plane88
usemtl PalmLeaf
f  73/1/64 74/2/65 75/3/66
f  76/4/67 75/3/66 74/2/65
f  77/5/68 73/1/64 78/6/69
f  75/3/66 78/6/69 73/1/64

# Mesh 'Plane87' with 4 faces
g Plane87
usemtl PalmLeaf
f  79/1/70 80/2/71 81/3/72
f  82/4/73 81/3/72 80/2/71
f  83/5/74 79/1/70 84/6/75
f  81/3/72 84/6/75 79/1/70

# Mesh 'Plane86' with 4 faces
g Plane86
usemtl PalmLeaf
f  85/1/76 86/2/77 87/3/78
f  88/4/79 87/3/78 86/2/77
f  89/5/80 85/1/76 90/6/81
f  87/3/78 90/6/81 85/1/76

# Mesh 'Plane85' with 4 faces
g Plane85
usemtl PalmLeaf
f  91/1/82 92/2/83 93/3/84
f  94/4/83 93/3/84 92/2/83
f  95/5/85 91/1/82 96/6/86
f  93/3/84 96/6/86 91/1/82

# Mesh 'Plane84' with 4 faces
g Plane84
usemtl PalmLeaf
f  97/1/87 98/2/88 99/3/89
f  100/4/90 99/3/89 98/2/88
f  101/5/91 97/1/87 102/6/91
f  99/3/89 102/6/91 97/1/87

# Mesh 'Plane83' with 4 faces
g Plane83
usemtl PalmLeaf
f  103/1/92 104/2/93 105/3/94
f  106/4/93 105/3/94 104/2/93
f  107/5/95 103/1/92 108/6/96
f  105/3/94 108/6/96 103/1/92

# Mesh 'Plane82' with 4 faces
g Plane82
usemtl PalmLeaf
f  109/1/97 110/2/98 111/3/99
f  112/4/100 111/3/99 110/2/98
f  113/5/101 109/1/97 114/6/102
f  111/3/99 114/6/102 109/1/97

# Mesh 'Plane81' with 4 faces
g Plane81
usemtl PalmLeaf
f  115/1/103 116/2/104 117/3/105
f  118/4/104 117/3/105 116/2/104
f  119/5/106 115/1/103 120/6/107
f  117/3/105 120/6/107 115/1/103

# Mesh 'Plane80' with 4 faces
g Plane80
usemtl PalmLeaf
f  121/1/108 122/2/109 123/3/110
f  124/4/111 123/3/110 122/2/109
f  125/5/112 121/1/108 126/6/113
f  123/3/110 126/6/113 121/1/108

# Mesh 'Plane79' with 4 faces
g Plane79
usemtl PalmLeaf
f  127/1/114 128/2/115 129/3/116
f  130/4/117 129/3/116 128/2/115
f  131/5/118 127/1/114 132/6/119
f  129/3/116 132/6/119 127/1/114

# Mesh 'Plane78' with 4 faces
g Plane78
usemtl PalmLeaf
f  133/1/120 134/2/121 135/3/122
f  136/4/123 135/3/122 134/2/121
f  137/5/124 133/1/120 138/6/125
f  135/3/122 138/6/125 133/1/120

# Mesh 'Plane77' with 4 faces
g Plane77
usemtl PalmLeaf
f  139/1/126 140/2/127 141/3/128
f  142/4/129 141/3/128 140/2/127
f  143/5/130 139/1/126 144/6/130
f  141/3/128 144/6/130 139/1/126

# Mesh 'Plane76' with 4 faces
g Plane76
usemtl PalmLeaf
f  145/1/131 146/2/132 147/3/133
f  148/4/134 147/3/133 146/2/132
f  149/5/135 145/1/131 150/6/136
f  147/3/133 150/6/136 145/1/131

# Mesh 'Plane75' with 4 faces
g Plane75
usemtl PalmLeaf
f  151/1/137 152/2/138 153/3/139
f  154/4/138 153/3/139 152/2/138
f  155/5/140 151/1/137 156/6/141
f  153/3/139 156/6/141 151/1/137

# Mesh 'Plane74' with 4 faces
g Plane74
usemtl PalmLeaf
f  157/1/142 158/2/143 159/3/144
f  160/4/145 159/3/144 158/2/143
f  161/5/146 157/1/142 162/6/146
f  159/3/144 162/6/146 157/1/142

# Mesh 'Plane73' with 4 faces
g Plane73
usemtl PalmLeaf
f  163/1/147 164/2/148 165/3/149
f  166/4/148 165/3/149 164/2/148
f  167/5/150 163/1/147 168/6/151
f  165/3/149 168/6/151 163/1/147

# Mesh 'Plane72' with 4 faces
g Plane72
usemtl PalmLeaf
f  169/1/152 170/2/153 171/3/154
f  172/4/155 171/3/154 170/2/153
f  173/5/156 169/1/152 174/6/157
f  171/3/154 174/6/157 169/1/152

# Mesh 'Plane71' with 4 faces
g Plane71
usemtl PalmLeaf
f  175/1/158 176/2/159 177/3/160
f  178/4/159 177/3/160 176/2/159
f  179/5/161 175/1/158 180/6/162
f  177/3/160 180/6/162 175/1/158

# Mesh 'Plane70' with 4 faces
g Plane70
usemtl PalmLeaf
f  181/1/163 182/2/164 183/3/165
f  184/4/164 183/3/165 182/2/164
f  185/5/166 181/1/163 186/6/167
f  183/3/165 186/6/167 181/1/163

# Mesh 'Plane69' with 4 faces
g Plane69
usemtl PalmLeaf
f  187/1/168 188/2/169 189/3/170
f  190/4/171 189/3/170 188/2/169
f  191/5/172 187/1/168 192/6/173
f  189/3/170 192/6/173 187/1/168

# Mesh 'Plane68' with 4 faces
g Plane68
usemtl PalmLeaf
f  193/1/174 194/2/175 195/3/176
f  196/4/177 195/3/176 194/2/175
f  197/5/178 193/1/174 198/6/178
f  195/3/176 198/6/178 193/1/174

# Mesh 'Plane67' with 4 faces
g Plane67
usemtl PalmLeaf
f  199/1/179 200/2/180 201/3/181
f  202/4/182 201/3/181 200/2/180
f  203/5/183 199/1/179 204/6/183
f  201/3/181 204/6/183 199/1/179

# Mesh 'Plane66' with 4 faces
g Plane66
usemtl PalmLeaf
f  205/1/184 206/2/185 207/3/186
f  208/4/187 207/3/186 206/2/185
f  209/5/188 205/1/184 210/6/189
f  207/3/186 210/6/189 205/1/184

# Mesh 'Cylinder04' with 46 faces
g Cylinder04
usemtl PalmTrunk
f  211/7/190 212/8/191 213/9/192
f  213/9/192 214/10/193 211/7/190
f  212/8/191 215/11/194 216/12/195
f  216/12/195 213/9/192 212/8/191
f  215/13/194 217/14/196 218/15/197
f  218/15/197 216/16/195 215/13/194
f  217/14/196 219/17/198 220/18/199
f  220/18/199 218/15/197 217/14/196
f  219/17/198 221/19/200 222/20/201
f  222/20/201 220/18/199 219/17/198
f  221/19/200 211/7/190 214/10/193
f  214/10/193 222/20/201 221/19/200
f  214/10/193 213/9/192 223/21/202
f  223/21/202 224/22/203 214/10/193
f  213/9/192 216/12/195 225/23/204
f  225/23/204 223/21/202 213/9/192
f  216/16/195 218/15/197 226/24/205
f  226/24/205 225/25/204 216/16/195
f  218/15/197 220/18/199 227/26/206
f  227/26/206 226/24/205 218/15/197
f  220/18/199 222/20/201 228/27/207
f  228/27/207 227/26/206 220/18/199
f  222/20/201 214/10/193 224/22/203
f  224/22/203 228/27/207 222/20/201
f  219/28/208 217/29/208 215/30/208
f  215/30/208 212/31/208 211/32/208
f  219/28/208 215/30/208 211/32/208
f  221/33/208 219/28/208 211/32/208
f  224/34/209 223/35/210 229/36/211
f  229/36/211 230/37/212 224/34/209
f  223/35/210 225/38/213 231/39/214
f  231/39/214 229/36/211 223/35/210
f  225/38/213 226/40/215 232/41/216
f  232/41/216 231/39/214 225/38/213
f  226/42/215 227/43/217 233/44/218
f  233/44/218 232/45/216 226/42/215
f  227/43/217 228/46/219 234/47/220
f  234/47/220 233/44/218 227/43/217
f  228/46/219 224/48/209 230/49/212
f  230/49/212 234/47/220 228/46/219
f  230/37/212 229/36/211 235/50/221
f  229/36/211 231/39/214 235/50/221
f  231/39/214 232/41/216 235/50/221
f  232/45/216 233/44/218 235/51/221
f  233/44/218 234/47/220 235/51/221
f  234/47/220 230/49/212 235/51/221

# Mesh 'Plane65' with 4 faces
g Plane65
usemtl PalmLeaf
f  236/1/222 237/2/223 238/3/224
f  239/4/225 238/3/224 237/2/223
f  240/5/226 236/1/222 241/6/227
f  238/3/224 241/6/227 236/1/222

# Mesh 'Plane64' with 4 faces
g Plane64
usemtl PalmLeaf
f  242/1/228 243/2/229 244/3/230
f  245/4/231 244/3/230 243/2/229
f  246/5/232 242/1/228 247/6/233
f  244/3/230 247/6/233 242/1/228

# Mesh 'Plane63' with 4 faces
g Plane63
usemtl PalmLeaf
f  248/1/234 249/2/235 250/3/236
f  251/4/237 250/3/236 249/2/235
f  252/5/238 248/1/234 253/6/239
f  250/3/236 253/6/239 248/1/234

# Mesh 'Plane62' with 4 faces
g Plane62
usemtl PalmLeaf
f  254/1/240 255/2/241 256/3/242
f  257/4/243 256/3/242 255/2/241
f  258/5/244 254/1/240 259/6/245
f  256/3/242 259/6/245 254/1/240

# Mesh 'Plane61' with 4 faces
g Plane61
usemtl PalmLeaf
f  260/1/246 261/2/247 262/3/248
f  263/4/249 262/3/248 261/2/247
f  264/5/250 260/1/246 265/6/251
f  262/3/248 265/6/251 260/1/246

# Mesh 'Plane60' with 4 faces
g Plane60
usemtl PalmLeaf
f  266/1/252 267/2/253 268/3/254
f  269/4/255 268/3/254 267/2/253
f  270/5/256 266/1/252 271/6/257
f  268/3/254 271/6/257 266/1/252

# Mesh 'Plane59' with 4 faces
g Plane59
usemtl PalmLeaf
f  272/1/258 273/2/259 274/3/260
f  275/4/261 274/3/260 273/2/259
f  276/5/262 272/1/258 277/6/263
f  274/3/260 277/6/263 272/1/258

# Mesh 'Plane58' with 4 faces
g Plane58
usemtl PalmLeaf
f  278/1/264 279/2/265 280/3/266
f  281/4/267 280/3/266 279/2/265
f  282/5/268 278/1/264 283/6/269
f  280/3/266 283/6/269 278/1/264

# Mesh 'Plane57' with 4 faces
g Plane57
usemtl PalmLeaf
f  284/1/270 285/2/271 286/3/272
f  287/4/273 286/3/272 285/2/271
f  288/5/274 284/1/270 289/6/275
f  286/3/272 289/6/275 284/1/270

# Mesh 'Plane56' with 4 faces
g Plane56
usemtl PalmLeaf
f  290/1/276 291/2/277 292/3/278
f  293/4/277 292/3/278 291/2/277
f  294/5/279 290/1/276 295/6/280
f  292/3/278 295/6/280 290/1/276

# Mesh 'Plane55' with 4 faces
g Plane55
usemtl PalmLeaf
f  296/1/281 297/2/282 298/3/283
f  299/4/284 298/3/283 297/2/282
f  300/5/285 296/1/281 301/6/286
f  298/3/283 301/6/286 296/1/281

# Mesh 'Plane54' with 4 faces
g Plane54
usemtl PalmLeaf
f  302/1/287 303/2/288 304/3/289
f  305/4/290 304/3/289 303/2/288
f  306/5/291 302/1/287 307/6/292
f  304/3/289 307/6/292 302/1/287

# Mesh 'Plane53' with 4 faces
g Plane53
usemtl PalmLeaf
f  308/1/293 309/2/294 310/3/295
f  311/4/296 310/3/295 309/2/294
f  312/5/297 308/1/293 313/6/298
f  310/3/295 313/6/298 308/1/293

# Mesh 'Plane52' with 4 faces
g Plane52
usemtl PalmLeaf
f  314/1/299 315/2/300 316/3/301
f  317/4/302 316/3/301 315/2/300
f  318/5/303 314/1/299 319/6/304
f  316/3/301 319/6/304 314/1/299

# Mesh 'Plane51' with 4 faces
g Plane51
usemtl PalmLeaf
f  320/1/305 321/2/306 322/3/307
f  323/4/308 322/3/307 321/2/306
f  324/5/309 320/1/305 325/6/310
f  322/3/307 325/6/310 320/1/305

