# Blender MTL File: 'None'
# Material Count: 1

newmtl Powerboat
Ns 0.000000
Ka 1.000000 1.000000 1.000000
Kd 0.588235 0.588235 0.588235
Ks 0.900000 0.900000 0.900000
Ke 0.000000 0.000000 0.000000
Ni 1.450000
d 1.000000
illum 2
map_Kd powerboat.bmp
